<?xml version="1.0" encoding="utf-8"?>
<!-- Generator: Adobe Illustrator 21.1.0, SVG Export Plug-In . SVG Version: 6.00 Build 0)  -->
<svg version="1.1" id="Слой_1" xmlns="http://www.w3.org/2000/svg" xmlns:xlink="http://www.w3.org/1999/xlink" x="0px" y="0px"
	 viewBox="0 0 246.5 150" style="enable-background:new 0 0 246.5 150;" xml:space="preserve">
<g>
	<path style="fill-rule:evenodd;clip-rule:evenodd;fill:none;stroke:#0079C1;stroke-miterlimit:10;" d="M39.8,89H17.7v60.9
		 M79.7,78.1V56.9l-34.6,6.8v86 M39.1,94.9h-4 M32.1,94.9h-4 M25.1,94.9h-4 M39.1,100h-4 M32.1,100h-4 M25.1,100h-4 M39.1,105.2h-4
		 M32.1,105.2h-4 M25.1,105.2h-4 M39.1,110.3h-4 M32.1,110.3h-4 M25.1,110.3h-4 M39.1,115.4h-4 M32.1,115.4h-4 M25.1,115.4h-4
		 M39.1,120.6h-4 M39.1,125.7h-4 M39.1,130.8h-4 M45.1,72.2h26.1 M45.1,77.7h26.1 M45.1,83.2h26.1 M45.1,88.7h26.1 M45.1,94.1h26.1
		 M45.1,99.6h26.1 M45.1,105.1h26.1 M45.1,110.5h26.1 M45.1,116h26.1 M45.1,121.5h26.1 M45.1,126.9h26.1 M45.1,132.4h26.1 M4,149.7
		V78.8h26.1v4.8H7.3 M14.3,88.3H7.3 M14.3,93.1H7.3 M14.3,97.8H7.3 M14.3,102.5H7.3 M14.3,107.3H7.3 M14.3,112H7.3 M14.3,116.7H7.3
		 M103,149.9V72.3h8.7v-3.6h16v3.6h5.7 M136.2,149.7V48.4h5v-6.1c30.4,0,19.2,0,36.5,0v6.1h3.5v41.1 M168.7,149.7V93.5h29.2v56.2
		 M189.3,90.5V73.8h23.3v4.6h8.9V150 M98.7,82.1h-19v67.6 M242,149.6V107h-17.4 M212.7,78.3h-14.4 M218,82.7h-3.7 M211.6,82.7h-3.7
		 M205.2,82.7h-3.7 M198.8,82.7H195 M218,87.2h-3.7 M211.6,87.2h-3.7 M205.2,87.2h-3.7 M198.8,87.2H195 M218,91.6h-3.7 M211.6,91.6
		h-3.7 M205.2,91.6h-3.7 M218,96h-3.7 M211.6,96h-3.7 M205.2,96h-3.7 M218,100.5h-3.7 M211.6,100.5h-3.7 M205.2,100.5h-3.7
		 M218,104.9h-3.7 M211.6,104.9h-3.7 M205.2,104.9h-3.7 M218,109.3h-3.7 M211.6,109.3h-3.7 M205.2,109.3h-3.7 M218,113.8h-3.7
		 M211.6,113.8h-3.7 M205.2,113.8h-3.7 M218,118.2h-3.7 M211.6,118.2h-3.7 M205.2,118.2h-3.7 M218,122.6h-3.7 M211.6,122.6h-3.7
		 M205.2,122.6h-3.7 M218,127.1h-3.7 M211.6,127.1h-3.7 M205.2,127.1h-3.7 M218,131.5h-3.7 M211.6,131.5h-3.7 M205.2,131.5h-3.7
		 M218,135.9h-3.7 M103,101.1h27.8 M103,105.8h27.8 M103,110.5h27.8 M103,115.1h27.8 M103,119.8h27.8 M103,124.5h27.8 M103,129.2
		h22.2 M103,133.9h16.3 M103,77.6h27.8 M103,82.3h27.8 M103,87h27.8 M103,91.7h27.8 M103,96.4h27.8 M143.3,53.6v90.8 M149.5,53.6
		v90.8 M155.7,53.6v90.8 M161.9,53.6v90.8 M168,53.6v35.8 M174.2,53.6v35.8 M177.7,48.4h-17.9 M168.7,98.5h22.8 M168.7,102.7h22.8
		 M168.7,106.9h22.8 M168.7,111.1h22.8 M168.7,115.3h22.8 M168.7,119.6h22.8 M168.7,123.8h22.8 M168.7,128h22.8 M242,112.3h-15
		 M242,117.7h-15 M242,123.1h-15 M242,128.5h-15 M242,133.9h-15 M242,139.3h-15 M242,144.6h-15 M82.8,87h4 M88.7,87h4 M94.7,87h4
		 M94.7,91.7h4 M94.7,96.4h4 M82.8,91.7h4 M88.7,91.7h4 M82.8,96.4h4 M82.8,101.1h4 M82.8,105.8h4 M88.7,105.8h4 M88.7,101.1h4
		 M88.7,96.4h4 M82.8,110.5h4 M168.7,132.2h22.8 M168.7,136.4h22.8 M168.7,140.6h22.8 M168.7,144.9h22.8 M32.1,120.6h-4 M32.1,125.7
		h-4 M32.1,130.8h-4 M25.1,120.6h-4 M25.1,125.7h-4 M25.1,130.8h-4 M39.1,135.9h-4 M39.1,141.1h-4 M82.8,115.2h4 M82.8,124.6h4
		 M82.8,119.9h4 M88.7,115.2h4 M88.7,110.5h4 M94.7,101.1h4 M94.7,105.8h4 M94.7,110.5h4 M94.7,115.2h4 M88.7,124.6h4 M88.7,119.9h4
		 M82.8,134h4 M82.8,129.3h4 M14.3,121.5H7.3 M14.3,126.2H7.3"/>
</g>
</svg>
