<?xml version="1.0" encoding="utf-8"?>
<!-- Generator: Adobe Illustrator 21.1.0, SVG Export Plug-In . SVG Version: 6.00 Build 0)  -->
<svg version="1.1" xmlns="http://www.w3.org/2000/svg" xmlns:xlink="http://www.w3.org/1999/xlink" x="0px" y="0px"
	 viewBox="0 0 230 140" style="enable-background:new 0 0 230 140;" xml:space="preserve">
<g id="Слой_4">
	<path style="fill:#00AE9E;" d="M87.4,106.8c11.6,1.1,23.1,2.3,34.7,3.4c0,9.5,0,19,0,28.5c0,0-34.7,0-34.7,0
		C87.4,128.1,87.4,117.4,87.4,106.8z"/>
</g>
<g id="ebrd-door">
	<path style="fill:#FFFFFF;" d="M87.4,106.8c11.6,1.1,23.1,2.3,34.7,3.4c0,9.5,0,19,0,28.5c0,0-34.7,0-34.7,0
		C87.4,128.1,87.4,117.4,87.4,106.8z"/>
	<path style="fill:none;stroke:#0079C1;stroke-miterlimit:10;" d="M119,115.3c-9.2-0.8-18.5-1.5-27.7-2.3"/>
	<path style="fill:none;stroke:#0079C1;stroke-miterlimit:10;" d="M119,120.1c-9.2-0.6-18.5-1.2-27.7-1.8"/>
	<path style="fill:none;stroke:#0079C1;stroke-miterlimit:10;" d="M119,124.9c-9.2-0.4-18.5-0.8-27.7-1.3"/>
	<path style="fill:none;stroke:#0079C1;stroke-miterlimit:10;" d="M119,129.7c-9.2-0.3-18.5-0.5-27.7-0.7"/>
	<path style="fill:none;stroke:#0079C1;stroke-miterlimit:10;" d="M91.2,134.2c9.2,0.1,18.5,0.2,27.7,0.2"/>
</g>
<g id="Слой_9">
	<rect x="75.6" y="57" style="fill:#FFFFFF;" width="57.3" height="47.7"/>
</g>
<g class="ebrd-color">
	<path style="fill:#A1D9D3;" d="M140.9,102.8c0,12,0,23.9,0,35.9h0h7c0-7,0-14.1,0-21.1c7.5-0.8,14.9-1.7,22.4-2.5
		c0,7.9,0,15.7,0,23.6c0,0,48.5,0,48.5,0v-32.3l-40.9-11.5l40.9,11.5l-40.9-11.5L140.9,102.8l37-7.9L140.9,102.8z"/>
	<path style="fill:#00AE9E;" d="M59.1,78.4c-6.6-1.3-13.1-2.5-19.7-3.8l-21.8,5.6V89l-5.2,1.3l63.2-16.1"/>
	<path style="fill:#A1D9D3;" d="M5.2,138.7h70.5h11.7c0-10.6,0-21.3,0-31.9c11.6,1.1,23.1,2.3,34.7,3.4c0,9.5,0,19,0,28.5
		c0,0,10.8,0,10.8,0c0-16.1,0-32.2,0-48.3l0.1,0L75.7,79.7L12.4,95.2c0,0,0,43.4,0,43.4"/>
</g>
<g id="Слой_7">
	<path style="fill:#FFFFFF;stroke:#0079C1;stroke-miterlimit:10;" d="M58.6,108.2c3.8-0.5,7.7-1,11.8-1.5c0,0.7,0,1.3,0,2s0,1.3,0,2
		c-4,0.5-8,0.9-11.8,1.3c0-0.6,0-1.3,0-1.9C58.6,109.5,58.6,108.8,58.6,108.2L58.6,108.2z"/>
	<path style="fill:#FFFFFF;stroke:#0079C1;stroke-miterlimit:10;" d="M43.4,110.1c3.4-0.4,6.9-0.9,10.5-1.3c0,0.6,0,1.3,0,1.9
		s0,1.3,0,1.9c-3.6,0.4-7.1,0.8-10.5,1.2c0-0.6,0-1.2,0-1.8C43.4,111.3,43.4,110.7,43.4,110.1L43.4,110.1z"/>
	<path style="fill:#FFFFFF;stroke:#0079C1;stroke-miterlimit:10;" d="M29.7,111.9c3.1-0.4,6.2-0.8,9.5-1.2c0,0.6,0,1.2,0,1.8
		c0,0.6,0,1.2,0,1.8c-3.2,0.4-6.4,0.7-9.5,1.1c0-0.6,0-1.1,0-1.7S29.7,112.4,29.7,111.9L29.7,111.9z"/>
	<path style="fill:#FFFFFF;stroke:#0079C1;stroke-miterlimit:10;" d="M17.4,113.4c2.8-0.4,5.6-0.7,8.5-1.1c0,0.6,0,1.1,0,1.7
		s0,1.1,0,1.7c-2.9,0.3-5.8,0.7-8.5,1c0-0.5,0-1.1,0-1.6C17.4,114.5,17.4,114,17.4,113.4L17.4,113.4z"/>
	<polyline style="fill:none;stroke:#0079C1;stroke-miterlimit:10;" points="12.4,95.2 75.7,79.7 133,90.4 	"/>
	<path style="fill:none;stroke:#0079C1;stroke-miterlimit:10;" d="M122.1,110.2c0,9.5,0,19,0,28.5"/>
	<path style="fill:none;stroke:#0079C1;stroke-miterlimit:10;" d="M87.4,106.8c11.6,1.1,23.1,2.3,34.7,3.4"/>
	<path style="fill:none;stroke:#0079C1;stroke-miterlimit:10;" d="M87.4,138.7c0-10.6,0-21.3,0-31.9"/>
	<path style="fill:none;stroke:#0079C1;stroke-miterlimit:10;" d="M75.7,79.7c0,19.7,0,39.3,0,59"/>
	<path style="fill:none;stroke:#0079C1;stroke-miterlimit:10;" d="M75.7,74.2c0,1.8,0,3.7,0,5.5"/>
	<line style="fill:none;stroke:#0079C1;stroke-miterlimit:10;" x1="12.4" y1="95.2" x2="12.4" y2="138.6"/>
	<line style="fill:none;stroke:#0079C1;stroke-miterlimit:10;" x1="12.4" y1="90.3" x2="12.4" y2="95.2"/>
	<path style="fill:none;stroke:#0079C1;stroke-miterlimit:10;" d="M75.6,74.2L12.4,90.3"/>
	<path style="fill:none;stroke:#0079C1;stroke-miterlimit:10;" d="M132.9,85.2c-19.1-3.7-38.2-7.3-57.3-11"/>
	<path style="fill:none;stroke:#0079C1;stroke-miterlimit:10;" d="M132.9,90.4c0-1.7,0-3.5,0-5.2"/>
	<path style="fill:none;stroke:#0079C1;stroke-miterlimit:10;" d="M132.9,138.7c0-16.1,0-32.2,0-48.3"/>
	<path style="fill:#FFFFFF;stroke:#0079C1;stroke-miterlimit:10;" d="M147.9,117.6c0,7,0,14.1,0,21.1"/>
	<path style="fill:#FFFFFF;stroke:#0079C1;stroke-miterlimit:10;" d="M170.3,115.1c-7.5,0.8-14.9,1.7-22.4,2.5"/>
	<path style="fill:#FFFFFF;stroke:#0079C1;stroke-miterlimit:10;" d="M170.3,138.7c0-7.9,0-15.7,0-23.6"/>
	<path style="fill:none;stroke:#0079C1;stroke-miterlimit:10;" d="M150.5,122c6-0.6,10.8-1.1,16.7-1.7"/>
	<path style="fill:none;stroke:#0079C1;stroke-miterlimit:10;" d="M150.5,134.4c6-0.2,10.8-0.4,16.7-0.6"/>
	<path style="fill:none;stroke:#0079C1;stroke-miterlimit:10;" d="M150.5,130.2c6-0.3,10.8-0.6,16.7-0.9"/>
	<path style="fill:none;stroke:#0079C1;stroke-miterlimit:10;" d="M150.5,126.1c6-0.4,10.8-0.9,16.7-1.3"/>
	<polyline style="fill:none;stroke:#0079C1;stroke-miterlimit:10;" points="218.8,106.4 177.9,94.9 140.9,102.8 	"/>
	<line style="fill:none;stroke:#0079C1;stroke-miterlimit:10;" x1="17.6" y1="80.2" x2="17.6" y2="89"/>
	<path style="fill:none;stroke:#0079C1;stroke-miterlimit:10;" d="M39.4,74.6l-21.8,5.6"/>
	<path style="fill:none;stroke:#0079C1;stroke-miterlimit:10;" d="M59.1,78.4c-6.6-1.3-13.1-2.5-19.7-3.8"/>
	<line style="fill:none;stroke:#0079C1;stroke-miterlimit:10;" x1="39.4" y1="74.6" x2="39.4" y2="83.4"/>
	<line style="fill:none;stroke:#0079C1;stroke-miterlimit:10;" x1="218.8" y1="138.7" x2="218.8" y2="138.8"/>
	<path style="fill:none;stroke:#0079C1;stroke-miterlimit:10;" d="M140.9,99.1c0,1.2,0,2.5,0,3.7"/>
	<path style="fill:none;stroke:#0079C1;stroke-miterlimit:10;" d="M177.9,91c-12.3,2.7-24.7,5.4-37,8.1"/>
	<path style="fill:none;stroke:#0079C1;stroke-miterlimit:10;" d="M218.8,103l-40.9-12"/>
	<line style="fill:none;stroke:#0079C1;stroke-miterlimit:10;" x1="218.8" y1="106.4" x2="218.8" y2="103"/>
	<line style="fill:none;" x1="177.9" y1="94.9" x2="140.9" y2="102.8"/>
	<line style="fill:none;" x1="218.8" y1="106.4" x2="177.9" y2="94.9"/>
	<line style="fill:none;stroke:#0079C1;stroke-miterlimit:10;" x1="75.7" y1="138.7" x2="5.2" y2="138.7"/>
	<line style="fill:none;stroke:#0079C1;stroke-miterlimit:10;" x1="87.4" y1="138.7" x2="75.7" y2="138.7"/>
	<line style="fill:none;stroke:#0079C1;stroke-miterlimit:10;" x1="122.1" y1="138.7" x2="87.4" y2="138.7"/>
	<line style="fill:none;stroke:#0079C1;stroke-miterlimit:10;" x1="132.9" y1="138.7" x2="122.1" y2="138.7"/>
	<line style="fill:none;stroke:#0079C1;stroke-miterlimit:10;" x1="140.9" y1="138.7" x2="132.9" y2="138.7"/>
	<line style="fill:none;stroke:#0079C1;stroke-miterlimit:10;" x1="224.9" y1="138.7" x2="218.8" y2="138.7"/>
	<polyline style="fill:none;stroke:#0079C1;stroke-miterlimit:10;" points="147.9,138.7 140.9,138.7 140.9,138.7 	"/>
	<line style="fill:none;stroke:#0079C1;stroke-miterlimit:10;" x1="170.3" y1="138.7" x2="147.9" y2="138.7"/>
	<line style="fill:none;stroke:#0079C1;stroke-miterlimit:10;" x1="218.8" y1="138.7" x2="170.3" y2="138.7"/>
	<path style="fill:none;stroke:#0079C1;stroke-miterlimit:10;" d="M177.9,90.9c0,15.9,0,31.9,0,47.8"/>
	<path style="fill:none;stroke:#0079C1;stroke-miterlimit:10;" d="M140.9,102.8c0,12,0,23.9,0,35.9"/>
	<line style="fill:none;stroke:#0079C1;stroke-miterlimit:10;" x1="218.8" y1="106.4" x2="218.8" y2="138.7"/>
	<line style="fill:none;stroke:#0079C1;stroke-miterlimit:10;" x1="182.2" y1="115" x2="187.6" y2="115.6"/>
	<line style="fill:none;stroke:#0079C1;stroke-miterlimit:10;" x1="191.1" y1="115.9" x2="196.5" y2="116.5"/>
	<line style="fill:none;stroke:#0079C1;stroke-miterlimit:10;" x1="200" y1="116.8" x2="205.4" y2="117.4"/>
	<line style="fill:none;stroke:#0079C1;stroke-miterlimit:10;" x1="208.8" y1="117.7" x2="214.2" y2="118.3"/>
</g>
</svg>
