<?xml version="1.0" encoding="utf-8"?>
<!-- Generator: Adobe Illustrator 21.1.0, SVG Export Plug-In . SVG Version: 6.00 Build 0)  -->
<svg version="1.1" id="Слой_1" xmlns="http://www.w3.org/2000/svg" xmlns:xlink="http://www.w3.org/1999/xlink" x="0px" y="0px"
	 viewBox="0 0 340.5 150" style="enable-background:new 0 0 340.5 150;" xml:space="preserve">
<g>
	<g>
		
			<line style="fill-rule:evenodd;clip-rule:evenodd;fill:none;stroke:#FFFFFF;stroke-miterlimit:10;" x1="161.5" y1="45.2" x2="166.4" y2="45.2"/>
		
			<line style="fill-rule:evenodd;clip-rule:evenodd;fill:none;stroke:#FFFFFF;stroke-miterlimit:10;" x1="135.3" y1="67.9" x2="140.2" y2="67.9"/>
		
			<line style="fill-rule:evenodd;clip-rule:evenodd;fill:none;stroke:#FFFFFF;stroke-miterlimit:10;" x1="146" y1="60.1" x2="150.9" y2="60.1"/>
		
			<line style="fill-rule:evenodd;clip-rule:evenodd;fill:none;stroke:#FFFFFF;stroke-miterlimit:10;" x1="138.1" y1="47.2" x2="143" y2="47.2"/>
		
			<line style="fill-rule:evenodd;clip-rule:evenodd;fill:none;stroke:#FFFFFF;stroke-miterlimit:10;" x1="154.7" y1="53" x2="159.6" y2="53"/>
		
			<line style="fill-rule:evenodd;clip-rule:evenodd;fill:none;stroke:#FFFFFF;stroke-miterlimit:10;" x1="142" y1="53" x2="146.9" y2="53"/>
		
			<line style="fill-rule:evenodd;clip-rule:evenodd;fill:none;stroke:#FFFFFF;stroke-miterlimit:10;" x1="130.4" y1="53" x2="135.3" y2="53"/>
		<polyline style="fill-rule:evenodd;clip-rule:evenodd;fill:none;stroke:#FFFFFF;stroke-miterlimit:10;" points="140.9,148.8 
			140.9,120.5 97.9,120.5 97.9,148.8 		"/>
		<path style="fill-rule:evenodd;clip-rule:evenodd;fill:none;stroke:#FFFFFF;stroke-miterlimit:10;" d="M66.1,148.8L66.1,148.8
			c0-10,0-18.7,0-28.7l-2.3,0.7v-5.9l26.7-12.3v-7.2l-4.7,2v-6.6l33.6-21.2L153,90.9v6.6l-4.7-2v7.1l26.8,12.4v5.9l-2.5-0.8
			c0,10,0,18.8,0,28.8"/>
		<polygon style="fill-rule:evenodd;clip-rule:evenodd;fill:none;stroke:#FFFFFF;stroke-miterlimit:10;" points="113.5,96.6 
			125.4,96.6 125.4,106.2 113.5,106.2 113.5,96.6 		"/>
		<path style="fill-rule:evenodd;clip-rule:evenodd;fill:none;stroke:#FFFFFF;stroke-miterlimit:10;" d="M78.7,105.2V69.2
			c0-20.9-38.8-21.8-39.6-0.1l0,24.7"/>
		
			<line style="fill-rule:evenodd;clip-rule:evenodd;fill:none;stroke:#FFFFFF;stroke-miterlimit:10;" x1="38.4" y1="68.2" x2="60.4" y2="68.2"/>
		<path style="fill-rule:evenodd;clip-rule:evenodd;fill:none;stroke:#FFFFFF;stroke-miterlimit:10;" d="M184.4,78.5
			c1.5,0,2.7,1.2,2.7,2.7c0,1.5-1.2,2.7-2.7,2.7c-1.5,0-2.7-1.2-2.7-2.7C181.7,79.7,182.9,78.5,184.4,78.5L184.4,78.5z"/>
		<path style="fill-rule:evenodd;clip-rule:evenodd;fill:none;stroke:#FFFFFF;stroke-miterlimit:10;" d="M160.6,76.6
			c-0.3,1.5-0.4,3-0.4,4.6c0,1.5,0.1,3.1,0.4,4.6l15.8-4.1c0-0.2,0-0.3,0-0.5s0-0.3,0-0.5L160.6,76.6L160.6,76.6z"/>
		<path style="fill-rule:evenodd;clip-rule:evenodd;fill:none;stroke:#FFFFFF;stroke-miterlimit:10;" d="M179.9,57.3l4.1,15.8
			c0.2,0,0.3,0,0.5,0c0.2,0,0.3,0,0.5,0l4.1-15.8c-1.5-0.3-3-0.4-4.6-0.4C182.9,56.9,181.4,57,179.9,57.3L179.9,57.3z"/>
		<path style="fill-rule:evenodd;clip-rule:evenodd;fill:none;stroke:#FFFFFF;stroke-miterlimit:10;" d="M198.1,61.1l-8.3,14.1
			c0.2,0.2,0.5,0.4,0.7,0.7l14.1-8.3C202.8,65,200.6,62.8,198.1,61.1L198.1,61.1z"/>
		<path style="fill-rule:evenodd;clip-rule:evenodd;fill:none;stroke:#FFFFFF;stroke-miterlimit:10;" d="M208.3,76.6l-15.8,4.1
			c0,0.2,0,0.3,0,0.5s0,0.3,0,0.5l15.8,4.1c0.3-1.5,0.4-3,0.4-4.6C208.7,79.6,208.5,78.1,208.3,76.6L208.3,76.6z"/>
		<path style="fill-rule:evenodd;clip-rule:evenodd;fill:none;stroke:#FFFFFF;stroke-miterlimit:10;" d="M204.5,94.8l-14.1-8.3
			c-0.2,0.2-0.4,0.5-0.7,0.7l8.3,14.1C200.6,99.5,202.8,97.3,204.5,94.8L204.5,94.8z"/>
		<path style="fill-rule:evenodd;clip-rule:evenodd;fill:none;stroke:#FFFFFF;stroke-miterlimit:10;" d="M189,105l-4.1-15.8
			c-0.2,0-0.3,0-0.5,0c-0.2,0-0.3,0-0.5,0l-4.1,15.8c1.5,0.3,3,0.4,4.6,0.4C185.9,105.4,187.5,105.3,189,105L189,105z"/>
		<path style="fill-rule:evenodd;clip-rule:evenodd;fill:none;stroke:#FFFFFF;stroke-miterlimit:10;" d="M170.8,101.3l8.3-14.1
			c-0.2-0.2-0.5-0.4-0.7-0.7l-14.1,8.3C166,97.3,168.2,99.5,170.8,101.3L170.8,101.3z"/>
		<path style="fill-rule:evenodd;clip-rule:evenodd;fill:none;stroke:#FFFFFF;stroke-miterlimit:10;" d="M164.3,67.5l14.1,8.3
			c0.2-0.2,0.4-0.5,0.7-0.7l-8.3-14.1C168.2,62.8,166,65,164.3,67.5L164.3,67.5z"/>
		
			<line style="fill-rule:evenodd;clip-rule:evenodd;fill:none;stroke:#FFFFFF;stroke-miterlimit:10;" x1="184.4" y1="109.2" x2="184.4" y2="149.7"/>
		
			<line style="fill-rule:evenodd;clip-rule:evenodd;fill:none;stroke:#FFFFFF;stroke-miterlimit:10;" x1="177.2" y1="108.3" x2="175.6" y2="112.1"/>
		
			<line style="fill-rule:evenodd;clip-rule:evenodd;fill:none;stroke:#FFFFFF;stroke-miterlimit:10;" x1="191.6" y1="108.3" x2="209.2" y2="150"/>
		
			<line style="fill-rule:evenodd;clip-rule:evenodd;fill:none;stroke:#FFFFFF;stroke-miterlimit:10;" x1="175.5" y1="133.3" x2="195" y2="116.4"/>
		
			<line style="fill-rule:evenodd;clip-rule:evenodd;fill:none;stroke:#FFFFFF;stroke-miterlimit:10;" x1="206.7" y1="145.2" x2="177.8" y2="120.3"/>
		
			<line style="fill-rule:evenodd;clip-rule:evenodd;fill:none;stroke:#FFFFFF;stroke-miterlimit:10;" x1="119.4" y1="120.5" x2="119.4" y2="149.8"/>
		
			<line style="fill-rule:evenodd;clip-rule:evenodd;fill:none;stroke:#FFFFFF;stroke-miterlimit:10;" x1="97.9" y1="149.4" x2="119.4" y2="120.5"/>
		
			<line style="fill-rule:evenodd;clip-rule:evenodd;fill:none;stroke:#FFFFFF;stroke-miterlimit:10;" x1="119.4" y1="149.4" x2="97.9" y2="120.5"/>
		
			<line style="fill-rule:evenodd;clip-rule:evenodd;fill:none;stroke:#FFFFFF;stroke-miterlimit:10;" x1="119.4" y1="149.4" x2="140.9" y2="120.5"/>
		
			<line style="fill-rule:evenodd;clip-rule:evenodd;fill:none;stroke:#FFFFFF;stroke-miterlimit:10;" x1="140.9" y1="149.4" x2="119.4" y2="120.5"/>
		
			<line style="fill-rule:evenodd;clip-rule:evenodd;fill:none;stroke:#FFFFFF;stroke-miterlimit:10;" x1="97.9" y1="148.8" x2="140.9" y2="148.8"/>
		
			<line style="fill-rule:evenodd;clip-rule:evenodd;fill:none;stroke:#FFFFFF;stroke-miterlimit:10;" x1="68.3" y1="68.2" x2="78.6" y2="68.2"/>
		
			<line style="fill-rule:evenodd;clip-rule:evenodd;fill:none;stroke:#FFFFFF;stroke-miterlimit:10;" x1="43.9" y1="71.6" x2="43.9" y2="92.9"/>
		
			<line style="fill-rule:evenodd;clip-rule:evenodd;fill:none;stroke:#FFFFFF;stroke-miterlimit:10;" x1="37.4" y1="148.8" x2="37.4" y2="115.7"/>
		<path style="fill-rule:evenodd;clip-rule:evenodd;fill:none;stroke:#FFFFFF;stroke-miterlimit:10;" d="M41.5,140
			c5.9-1,10.6-4.1,11.7-8.5c2.8-8.6,2.8-13.3,0.7-16.8c-0.4-0.6-0.7-1.1-1.1-1.7c-1-1.4-1.8-2.7-1.9-4.5c-0.2-3.3-2.9-5.9-5.3-7.6
			c-2.9-2.1-5.4-3.2-10-2.4c-7.9,1.3-11.2,2.9-14.5,10.7c-1.9,4.5,0.8,8-0.9,10c-2,2.3-1.4,7.2-0.8,9.8c1.5,6.4,11.1,11.3,17.7,11.4
			"/>
		
			<line style="fill-rule:evenodd;clip-rule:evenodd;fill:none;stroke:#FFFFFF;stroke-miterlimit:10;" x1="37.4" y1="124.1" x2="42.9" y2="120.7"/>
		
			<line style="fill-rule:evenodd;clip-rule:evenodd;fill:none;stroke:#FFFFFF;stroke-miterlimit:10;" x1="37.4" y1="128.7" x2="27.6" y2="122.7"/>
		
			<line style="fill-rule:evenodd;clip-rule:evenodd;fill:none;stroke:#FFFFFF;stroke-miterlimit:10;" x1="37.4" y1="134.5" x2="47.4" y2="128.4"/>
		<path style="fill-rule:evenodd;clip-rule:evenodd;fill:none;stroke:#FFFFFF;stroke-miterlimit:10;" d="M15.9,143.5
			c-4.2-0.1-8.4-2.9-9.2-5.7c-2-5.5-2.2-8.5-1-10.7c0.7-1.3,1.6-2.4,1.6-4c0-4.2,5.1-7,8.8-6.4c0.3,0.1,1.6,0.4,2.6,0.6"/>
		<path style="fill-rule:evenodd;clip-rule:evenodd;fill:none;stroke:#FFFFFF;stroke-miterlimit:10;" d="M25,138.7
			c-1.5,2.4-4.2,4.3-6.8,4.7"/>
		
			<line style="fill-rule:evenodd;clip-rule:evenodd;fill:none;stroke:#FFFFFF;stroke-miterlimit:10;" x1="15.9" y1="148.9" x2="15.9" y2="139.7"/>
	</g>
	<path style="fill-rule:evenodd;clip-rule:evenodd;fill:none;stroke:#FFFFFF;stroke-miterlimit:10;" d="M278.7,92.3
		c2,0,3,0.7,3.3,1.9v13.5 M280.9,129.5h17.8 M325,111.2V85.9h-29.7l0,21.8l-33.5,0v19.9 M270.8,123.7c6.6,0,11.9,5.3,11.9,11.9
		c0,6.6-5.3,11.9-11.9,11.9c-6.6,0-11.9-5.3-11.9-11.9C258.9,129,264.2,123.7,270.8,123.7L270.8,123.7z M318.8,113.9
		c9.3,0,16.8,7.5,16.8,16.8c0,9.3-7.5,16.8-16.8,16.8c-9.3,0-16.8-7.5-16.8-16.8C302,121.5,309.5,113.9,318.8,113.9L318.8,113.9z"/>
</g>
</svg>
