<?xml version="1.0" encoding="utf-8"?>
<!-- Generator: Adobe Illustrator 21.1.0, SVG Export Plug-In . SVG Version: 6.00 Build 0)  -->
<svg version="1.1" id="Слой_1" xmlns="http://www.w3.org/2000/svg" xmlns:xlink="http://www.w3.org/1999/xlink" x="0px" y="0px"
	 viewBox="0 0 160 160" style="enable-background:new 0 0 160 160;" xml:space="preserve">
<filter id="dropshadow" height="130%">
  <feGaussianBlur in="SourceAlpha" stdDeviation="3"/> <!-- stdDeviation is how much to blur -->
  <feOffset dx="2" dy="2" result="offsetblur"/> <!-- how much to offset -->
  <feComponentTransfer>
    <feFuncA type="linear" slope="0.5"/> <!-- slope is the opacity of the shadow -->
  </feComponentTransfer>
  <feMerge> 
    <feMergeNode/> <!-- this contains the offset blurred image -->
    <feMergeNode in="SourceGraphic"/> <!-- this contains the element that the filter is applied to -->
  </feMerge>
</filter>
<circle style="fill:#00539B;" cx="80" cy="80" r="74"/>
<ellipse style="fill:none;stroke:#FFFFFF;stroke-miterlimit:22.9256;" cx="80" cy="80" rx="46.3" ry="47.4"/>
<polygon style="fill:none;stroke:#FFFFFF;stroke-miterlimit:22.9256;" points="84.4,95.8 75.6,95.8 70.5,53.1 89.5,53.1 "/>
<rect x="75.6" y="99.5" style="fill:none;stroke:#FFFFFF;stroke-miterlimit:22.9256;" width="8.8" height="7.4"/>
</svg>
