<?xml version="1.0" encoding="utf-8"?>
<!-- Generator: Adobe Illustrator 21.1.0, SVG Export Plug-In . SVG Version: 6.00 Build 0)  -->
<svg version="1.1" id="Слой_1" xmlns="http://www.w3.org/2000/svg" xmlns:xlink="http://www.w3.org/1999/xlink" x="0px" y="0px"
	 viewBox="0 0 34 34" style="enable-background:new 0 0 34 34;" xml:space="preserve">
<g>
	<rect x="0" y="0" style="fill:#24E57B;" width="34" height="34"/>
	<path style="fill:#FFFFFF;" d="M6.5,27.2c0.2-0.6,0.4-1.1,0.6-1.6c0.4-1.2,0.8-2.5,1.2-3.7c0-0.1,0-0.2,0-0.3
		c-0.7-1.3-1.2-2.6-1.3-4.1c-0.3-3.1,0.6-5.9,2.7-8.2c1.6-1.7,3.6-2.8,5.9-3.2c3.8-0.6,7.1,0.6,9.6,3.6c1.2,1.4,2,3.1,2.2,4.9
		c0.6,4-0.7,7.3-3.8,9.8c-1.4,1.1-2.9,1.8-4.7,2.1c-2.3,0.4-4.5,0-6.5-1.1c-0.1-0.1-0.2-0.1-0.4,0c-1.8,0.6-3.5,1.1-5.3,1.7
		C6.7,27.1,6.6,27.1,6.5,27.2 M9.1,24.6c0.1,0,0.2-0.1,0.3-0.1c1-0.3,1.9-0.6,2.9-0.9c0.1,0,0.2,0,0.3,0c2.1,1.3,4.3,1.7,6.7,1.1
		c4.7-1.2,7.5-6.1,6.2-10.7c-1.3-4.7-6.3-7.4-11-5.9c-3.8,1.2-6.3,4.9-6,8.8c0.1,1.6,0.6,3,1.5,4.3c0.1,0.1,0.1,0.2,0,0.4
		c-0.3,0.8-0.6,1.6-0.8,2.4C9.2,24.2,9.2,24.4,9.1,24.6"/>
	<path style="fill:#FFFFFF;" d="M13.8,11.3c0.2,0,0.4,0,0.6,0c0.2,0,0.3,0.2,0.4,0.3c0.1,0.4,0.3,0.7,0.4,1.1
		c0.1,0.4,0.3,0.7,0.4,1.1c0.1,0.2,0.1,0.3,0,0.5c-0.2,0.3-0.4,0.6-0.7,0.8c-0.2,0.3-0.3,0.3-0.1,0.7c0.8,1.5,2,2.6,3.5,3.2
		c0.2,0.1,0.4,0.1,0.5-0.1c0.3-0.3,0.6-0.6,0.8-0.9c0.2-0.3,0.3-0.3,0.6-0.2c0.4,0.2,0.9,0.5,1.3,0.7c0.2,0.1,0.5,0.3,0.7,0.4
		c0.1,0.1,0.2,0.2,0.2,0.3c0,0.8-0.3,1.4-1,1.8c-0.8,0.4-1.5,0.6-2.4,0.3c-1.1-0.4-2.3-0.8-3.3-1.6c-1.1-0.9-2-1.9-2.8-3.1
		c-0.4-0.6-0.7-1.1-0.9-1.7c-0.3-0.9-0.3-1.8,0.2-2.6c0.2-0.3,0.5-0.6,0.7-0.9C13.3,11.3,13.5,11.3,13.8,11.3"/>
</g>
</svg>
